%YAML 1.1
%TAG !u! tag:unity3d.com,2011:
--- !u!1 &5454045333545121956
GameObject:
  m_ObjectHideFlags: 0
  m_CorrespondingSourceObject: {fileID: 0}
  m_PrefabInstance: {fileID: 0}
  m_PrefabAsset: {fileID: 0}
  serializedVersion: 6
  m_Component:
  - component: {fileID: 5454045333545121954}
  - component: {fileID: 5454045333545121957}
  m_Layer: 0
  m_Name: RandomPipe
  m_TagString: Untagged
  m_Icon: {fileID: 0}
  m_NavMeshLayer: 0
  m_StaticEditorFlags: 0
  m_IsActive: 1
--- !u!4 &5454045333545121954
Transform:
  m_ObjectHideFlags: 0
  m_CorrespondingSourceObject: {fileID: 0}
  m_PrefabInstance: {fileID: 0}
  m_PrefabAsset: {fileID: 0}
  m_GameObject: {fileID: 5454045333545121956}
  m_LocalRotation: {x: 0, y: 0, z: 0, w: 1}
  m_LocalPosition: {x: 2.83, y: 0.02, z: -16.843327}
  m_LocalScale: {x: 1, y: 1, z: 1}
  m_Children: []
  m_Father: {fileID: 0}
  m_RootOrder: 0
  m_LocalEulerAnglesHint: {x: 0, y: 0, z: 0}
--- !u!114 &5454045333545121957
MonoBehaviour:
  m_ObjectHideFlags: 0
  m_CorrespondingSourceObject: {fileID: 0}
  m_PrefabInstance: {fileID: 0}
  m_PrefabAsset: {fileID: 0}
  m_GameObject: {fileID: 5454045333545121956}
  m_Enabled: 1
  m_EditorHideFlags: 0
  m_Script: {fileID: 11500000, guid: a974bc86ab1ab4d6cb27a247c64e2b1e, type: 3}
  m_Name: 
  m_EditorClassIdentifier: 
  doubleDistance: 5
  createTime: 0
  createTimer: 2
  downMax: -1.9
  downMin: -2.7
  upMax: 1.7
  upMin: 2
  createX: 3
  downPipe: {fileID: 0}
  upPipe: {fileID: 0}
