%YAML 1.1
%TAG !u! tag:unity3d.com,2011:
--- !u!1 &4668792367766970601
GameObject:
  m_ObjectHideFlags: 0
  m_CorrespondingSourceObject: {fileID: 0}
  m_PrefabInstance: {fileID: 0}
  m_PrefabAsset: {fileID: 0}
  serializedVersion: 6
  m_Component:
  - component: {fileID: 4668792367766970607}
  - component: {fileID: 4668792367766970600}
  m_Layer: 0
  m_Name: SynthAudioManager
  m_TagString: Untagged
  m_Icon: {fileID: 0}
  m_NavMeshLayer: 0
  m_StaticEditorFlags: 0
  m_IsActive: 1
--- !u!4 &4668792367766970607
Transform:
  m_ObjectHideFlags: 0
  m_CorrespondingSourceObject: {fileID: 0}
  m_PrefabInstance: {fileID: 0}
  m_PrefabAsset: {fileID: 0}
  m_GameObject: {fileID: 4668792367766970601}
  m_LocalRotation: {x: 0, y: 0, z: 0, w: 1}
  m_LocalPosition: {x: 0, y: 0, z: 0}
  m_LocalScale: {x: 1, y: 1, z: 1}
  m_Children: []
  m_Father: {fileID: 0}
  m_RootOrder: 0
  m_LocalEulerAnglesHint: {x: 0, y: 0, z: 0}
--- !u!114 &4668792367766970600
MonoBehaviour:
  m_ObjectHideFlags: 0
  m_CorrespondingSourceObject: {fileID: 0}
  m_PrefabInstance: {fileID: 0}
  m_PrefabAsset: {fileID: 0}
  m_GameObject: {fileID: 4668792367766970601}
  m_Enabled: 1
  m_EditorHideFlags: 0
  m_Script: {fileID: 11500000, guid: 315ff5751693fd24a996c5741c2bbec2, type: 3}
  m_Name: 
  m_EditorClassIdentifier: 
  sounds:
  - name: synth_1
    clip: {fileID: 8300000, guid: 1d0b2762fa678b14faf64d73cc98d12c, type: 3}
    volume: 1
    pitch: 1
    loop: 0
    source: {fileID: 0}
  - name: synth_2
    clip: {fileID: 8300000, guid: e24d771f32a244d418232b57928873e9, type: 3}
    volume: 1
    pitch: 1
    loop: 0
    source: {fileID: 0}
  - name: synth_3
    clip: {fileID: 8300000, guid: 50381e30d32b9244b9ec4b055b5b392a, type: 3}
    volume: 1
    pitch: 1
    loop: 0
    source: {fileID: 0}
  - name: synth_4
    clip: {fileID: 8300000, guid: a406a244afa10804c90d7b438fb694f7, type: 3}
    volume: 1
    pitch: 1
    loop: 0
    source: {fileID: 0}
  - name: synth_5
    clip: {fileID: 8300000, guid: c9e628ab2dc765344aa62c2f4282ec77, type: 3}
    volume: 1
    pitch: 1
    loop: 0
    source: {fileID: 0}
  - name: synth_6
    clip: {fileID: 8300000, guid: 01a1847c0724f1c49af7a78adaf2bc5a, type: 3}
    volume: 1
    pitch: 1
    loop: 0
    source: {fileID: 0}
  - name: synth_7
    clip: {fileID: 8300000, guid: 2634bba430dbc504abb75f333dcbc6d4, type: 3}
    volume: 1
    pitch: 1
    loop: 0
    source: {fileID: 0}
  - name: synth_8
    clip: {fileID: 8300000, guid: e8a8bc34fccd8ec4e8736de28f7e781d, type: 3}
    volume: 1
    pitch: 1
    loop: 0
    source: {fileID: 0}
  - name: synth_9
    clip: {fileID: 8300000, guid: 7f86b453ce7887340a339a08cb5a5f4b, type: 3}
    volume: 1
    pitch: 1
    loop: 0
    source: {fileID: 0}
  - name: synth_10
    clip: {fileID: 8300000, guid: f6ce632c63f217642bfc4ad8ad02fe87, type: 3}
    volume: 1
    pitch: 1
    loop: 0
    source: {fileID: 0}
  - name: synth_11
    clip: {fileID: 8300000, guid: 4fdfe3e1135dbd84eb46e294f1101d89, type: 3}
    volume: 1
    pitch: 1
    loop: 0
    source: {fileID: 0}
