%YAML 1.1
%TAG !u! tag:unity3d.com,2011:
--- !u!114 &11400000
MonoBehaviour:
  m_ObjectHideFlags: 0
  m_CorrespondingSourceObject: {fileID: 0}
  m_PrefabInstance: {fileID: 0}
  m_PrefabAsset: {fileID: 0}
  m_GameObject: {fileID: 0}
  m_Enabled: 1
  m_EditorHideFlags: 0
  m_Script: {fileID: 11500000, guid: 54d21f6ece3b46479f0c328f8c6007e0, type: 3}
  m_Name: Blue to Purple - Vertical
  m_EditorClassIdentifier: 
  colorMode: 3
  topLeft: {r: 1, g: 0.41037738, b: 0.87976336, a: 1}
  topRight: {r: 0.33134568, g: 0.4505743, b: 0.9622642, a: 1}
  bottomLeft: {r: 0.24528301, g: 0.17239231, b: 0.22465359, a: 1}
  bottomRight: {r: 0.3726415, g: 0.50535184, b: 1, a: 1}
